{
	"games":  [
	{
		"DOMAIN__1D": ["UAV"],
		"GAME__2D": [
			"Scenario11_uavs2x2_res0_controls0_mode-sensorsNoComm_simplified",
			"SC33_UAV3x3_R6_SENSORS2_SYM_rh_no_sensors",
			"SC33_UAV3x3_R6_SENSORS2_SYM_simplified",
			"Scenario30_uavs3x3_res0_controls0_mode-sensorsNoComm_simplified",
			"Scenario32_uavs3x3_res0_controls0_mode-sensorsNoComm_simplified"
		]
	}, {
		"DOMAIN__1D": ["TAXI"],
		"GAME__2D": [
			"problem1s",
			"problem2s",
			"problem3s",
			"problem4s",
			"problem5s"
		]
	}, {
		"DOMAIN__1D": ["TAXIINF"],
		"GAME__2D": [
			"problem1s",
			"problem2s",
			"problem3s",
			"problem4s",
			"problem5s"
		]
	}],
	"DoubleOracle": [{
		"ALG__":["DO"],
		"heuristics": "none",
		"plannerName": "FASTDOWNWARD",
		"pddlPlannerName": "FASTDOWNWARD",
		"maxTime": 1800,
		"anytime": false,
		"searchString" : "ASTAR-POTENT-1",
		"p1InitPlanner": {},
		"p2InitPlanner": {},
		"p1BestResponsePlanner": {},
		"p2BestResponsePlanner": {}
	}],
	"Exploitability": {
		"plannerName": "FASTDOWNWARD",
		"pddlPlannerName": "FASTDOWNWARD",
		"maxTime": 3600,
		"anytime": false,
		"searchString" : "ASTAR-POTENT-1",
		"p1BestResponsePlanner": {},
		"p2BestResponsePlanner": {}
	},
	"mixedSamplingExploitability": {
		"numberOfPlans": 10,
	},
	"Sampling": {
		"ALG__":["SAMPL"],
		"ESTNO__": [1, 2, 4, 8, 16, 64, 256, 1024, 4096, 16384],
		"plannerName": "FASTDOWNWARD",
		"pddlPlannerName": "FASTDOWNWARD",
		"searchString" : "ASTAR-POTENT-1",
		"maxTime": 3000,
		"anytime": false,
		"p1Planner": {},
		"p2Planner": {},
		"numberOfTrials": 10
	},
	"Baseline": {
		"ALG__":["BASELINE"],
		"planner": {
			"pddlPlannerName": "CPT5",
			"maxTime": 1800
			}
		}
}
