{
	"DOMAINS_PATH" : "/Users/pavel/Documents/1_Projects/0_Code/Experiments/Domains",
	"PLANNING_PROBLEMS_PATH": "/Users/pavel/Documents/1_Projects/0_code/Experiments/PlanningDomains",
	"NEPTUNE_API_TOKEN" : "",
	"NEPTUNE_PROJECT_NAME": "",
	"FastDownwardGrounderPath": "/Users/pavel/Projects/FastDownward/downward/src/translate/translate.py",
	"SymKFastDownwardGrounderPath": "/Users/pavel/build-files/symk/builds/release/bin/translate/translate.py",
	"SymKFastDownwardPreprocessingPath": "/Users/pavel/build-files/symk/builds/release/bin/preprocess",
	"FastDownwardGrounderPythonModulePath": "/Users/pavel/Documents/1_Projects/0_code/cfastdownward/python_scripts/translate",
	"TemporalFastDownwardGrounderPath": "/Users/pavel/Projects/tfd-src-0.4/downward/translate/translate.py",
	"TemporalFastDownwardPreprocessorPath": "/Users/pavel/build-files/temporal_downward_preprocessor/preprocess",
	"graphGeneratorPath": "/Users/pavel/Documents/1_Projects/0_code/ChartsPython/generate_graph.sh",
	"graphGeneratorDirPath": "/Users/pavel/Documents/1_Projects/0_code/ChartsPython/",
	"CPT5": {
		"plannerExecutablePath": "/Users/pavel/Projects/Planners/cpt5_planner_new/start_planner.sh"
	},
	"FASTDOWNWARD": {
		"plannerExecutablePath" : "/Users/pavel/Projects/FastDownward/start_planner",
		"anyTimePlanCheckerExecutablePath" : "/Users/pavel/Projects/FastDownward/find_best_plan.py"
	},
	"FDSYMK": {
		"plannerExecutablePath" : "/Users/pavel/build-files/symk/builds/release/bin/downward"
	},
	"FASTDOWNWARDSEARCHSTRINGS": {
		"ASTAR-POTENT-1" : "astar(diverse_potentials(num_samples=1000, max_num_heuristics=infinity, max_potential=1e8, lpsolver=CPLEX, transform=no_transform(), cache_estimates=true, random_seed=-1))",
		"LMCUT" : "astar(lmcut())"
	}
}
